{
    "get": {
        "description": "",
        "operationId": "ApiDoesNotAllowIncludes",
        "parameters": [
            {
                "description": "Tells the API to return additional data related to the resource you have requested. Doesn't work well with `fields`",
                "in": "query",
                "name": "include",
                "schema": {
                    "example": "count.clicks,count.subscribers",
                    "type": "string"
                }
            }
        ],
        "responses": {
            "200": {
                "content": {
                    "application/json": {
                        "example": {
                            "meta": {
                                "pagination": {
                                    "limit": 5,
                                    "next": 2,
                                    "page": 1,
                                    "pages": 2,
                                    "prev": null,
                                    "total": 7
                                }
                            },
                            "recommendations": [
                                {
                                    "created_at": "1970-01-01T00:00:30.000Z",
                                    "excerpt": null,
                                    "favicon": null,
                                    "featured_image": null,
                                    "id": "651c810e1334699742ceaaf2",
                                    "one_click_subscribe": false,
                                    "reason": "Reason 6",
                                    "title": "Recommendation 6",
                                    "updated_at": "2023-10-03T21:01:02.000Z",
                                    "url": "https://recommendation6.com/"
                                },
                                {
                                    "created_at": "1970-01-01T00:00:25.000Z",
                                    "excerpt": null,
                                    "favicon": null,
                                    "featured_image": null,
                                    "id": "651c810e1334699742ceaaf1",
                                    "one_click_subscribe": false,
                                    "reason": "Reason 5",
                                    "title": "Recommendation 5",
                                    "updated_at": "2023-10-03T21:01:02.000Z",
                                    "url": "https://recommendation5.com/"
                                },
                                {
                                    "created_at": "1970-01-01T00:00:20.000Z",
                                    "excerpt": null,
                                    "favicon": null,
                                    "featured_image": null,
                                    "id": "651c810e1334699742ceaaf0",
                                    "one_click_subscribe": false,
                                    "reason": "Reason 4",
                                    "title": "Recommendation 4",
                                    "updated_at": "2023-10-03T21:01:02.000Z",
                                    "url": "https://recommendation4.com/"
                                },
                                {
                                    "created_at": "1970-01-01T00:00:15.000Z",
                                    "excerpt": null,
                                    "favicon": null,
                                    "featured_image": null,
                                    "id": "651c810e1334699742ceaaef",
                                    "one_click_subscribe": false,
                                    "reason": "Reason 3",
                                    "title": "Recommendation 3",
                                    "updated_at": "2023-10-03T21:01:02.000Z",
                                    "url": "https://recommendation3.com/"
                                },
                                {
                                    "created_at": "1970-01-01T00:00:10.000Z",
                                    "excerpt": null,
                                    "favicon": null,
                                    "featured_image": null,
                                    "id": "651c810e1334699742ceaaee",
                                    "one_click_subscribe": false,
                                    "reason": "Reason 2",
                                    "title": "Recommendation 2",
                                    "updated_at": "2023-10-03T21:01:02.000Z",
                                    "url": "https://recommendation2.com/"
                                }
                            ]
                        },
                        "schema": {
                            "type": "object",
                            "properties": {
                                "recommendations": {
                                    "type": "array",
                                    "items": {
                                        "$ref": "../components/schemas/recommendations.json"
                                    }
                                },
                                "meta": {
                                    "$ref": "../components/schemas/meta.json"
                                }
                            }
                        }
                    }
                },
                "description": ""
            }
        },
        "summary": "Api does not allow includes",
        "tags": [
            "recommendations"
        ]
    },
    "parameters": []
}