{"openapi":"3.0.0","info":{"title":"HarToOpenApi","version":"1.0.0","description":"OpenAPI spec generated from HAR data for yoursite.com on 2023-10-02T15:18:31.099Z"},"paths":{"/ghost/api/content/recommendations/":{"get":{"description":"","operationId":"getGhostApiContentRecommendations","parameters":[{"description":"include","in":"query","name":"include","schema":{"default":"count.clicks,count.subscribers","example":"count.clicks,count.subscribers","type":"string"}},{"description":"key","in":"query","name":"key","schema":{"default":"cccccccccccccccccccccccccc","example":"cccccccccccccccccccccccccc","type":"string"}}],"responses":{"200":{"content":{"application/json":{"example":{"meta":{"pagination":{"limit":5,"next":2,"page":1,"pages":2,"prev":null,"total":7}},"recommendations":[{"created_at":"1970-01-01T00:00:30.000Z","excerpt":null,"favicon":null,"featured_image":null,"id":"6515dff17c9d0336f50dd3a8","one_click_subscribe":false,"reason":"Reason 6","title":"Recommendation 6","updated_at":"2023-09-28T20:20:01.000Z","url":"https://recommendation6.com/"},{"created_at":"1970-01-01T00:00:25.000Z","excerpt":null,"favicon":null,"featured_image":null,"id":"6515dff17c9d0336f50dd3a7","one_click_subscribe":false,"reason":"Reason 5","title":"Recommendation 5","updated_at":"2023-09-28T20:20:01.000Z","url":"https://recommendation5.com/"},{"created_at":"1970-01-01T00:00:20.000Z","excerpt":null,"favicon":null,"featured_image":null,"id":"6515dff17c9d0336f50dd3a6","one_click_subscribe":false,"reason":"Reason 4","title":"Recommendation 4","updated_at":"2023-09-28T20:20:01.000Z","url":"https://recommendation4.com/"},{"created_at":"1970-01-01T00:00:15.000Z","excerpt":null,"favicon":null,"featured_image":null,"id":"6515dff17c9d0336f50dd3a5","one_click_subscribe":false,"reason":"Reason 3","title":"Recommendation 3","updated_at":"2023-09-28T20:20:01.000Z","url":"https://recommendation3.com/"},{"created_at":"1970-01-01T00:00:10.000Z","excerpt":null,"favicon":null,"featured_image":null,"id":"6515dff17c9d0336f50dd3a4","one_click_subscribe":false,"reason":"Reason 2","title":"Recommendation 2","updated_at":"2023-09-28T20:20:01.000Z","url":"https://recommendation2.com/"}]},"schema":{"additionalProperties":false,"properties":{"meta":{"additionalProperties":false,"properties":{"pagination":{"additionalProperties":false,"properties":{"limit":{"type":"integer"},"next":{"type":"integer"},"page":{"type":"integer"},"pages":{"type":"integer"},"prev":{"nullable":true},"total":{"type":"integer"}},"required":[],"title":"Pagination","type":"object"}},"required":[],"title":"Meta","type":"object"},"recommendations":{"items":{"additionalProperties":false,"properties":{"created_at":{"format":"date-time","type":"string"},"excerpt":{"nullable":true},"favicon":{"nullable":true},"featured_image":{"nullable":true},"id":{"type":"string"},"one_click_subscribe":{"type":"boolean"},"reason":{"type":"string"},"title":{"type":"string"},"updated_at":{"format":"date-time","type":"string"},"url":{"format":"uri","type":"string","x-qt-uri-protocols":["https"]}},"required":[],"title":"Recommendation","type":"object"},"type":"array"}},"required":[],"title":"GhostAPIContentRecommendationsGetRequest","type":"object"}}},"description":""}},"summary":"Get Ghost Api Content Recommendations"},"parameters":[]}},"servers":[{"url":"https://yoursite.com"}]}