{
  "get": {
    "description": "",
    "operationId": "getGhostApiContentTags",
    "parameters": [
      {
        "description": "Select fields to return",
        "in": "query",
        "name": "fields",
        "schema": {
          "type": "string",
          "example": "id,title,slug"
        }
      },
      {
        "description": "Filter the result set to only include resources that match the provided criteria",
        "in": "query",
        "name": "filter",
        "schema": {
          "example": "visibility:public",
          "type": "string"
        }
      },
      {
        "description": "Tells the API to return additional data related to the resource you have requested. Doesn't work well with `fields`",
        "in": "query",
        "name": "include",
        "schema": {
          "example": "count.posts",
          "type": "string"
        }
      },
      {
        "description": "Limit the number of resources in the response",
        "in": "query",
        "name": "limit",
        "schema": {
          "example": "1",
          "type": "string"
        }
      },
      {
        "description": "Order the returned resources.",
        "in": "query",
        "name": "order",
        "schema": {
          "example": "published_at desc",
          "type": "string"
        }
      },
      {
        "description": "Paginate through collections of resources. By default, the first 15 records are returned.",
        "in": "query",
        "name": "page",
        "schema": {
          "example": "1",
          "type": "string"
        }
      }
    ],
    "responses": {
      "200": {
        "content": {
          "application/json": {
            "example": {
              "meta": {
                "pagination": {
                  "limit": 1,
                  "next": 2,
                  "page": 1,
                  "pages": 8,
                  "prev": null,
                  "total": 8
                }
              },
              "tags": [
                {
                  "accent_color": null,
                  "canonical_url": null,
                  "codeinjection_foot": null,
                  "codeinjection_head": null,
                  "count": {
                    "posts": 3
                  },
                  "description": null,
                  "feature_image": null,
                  "id": "65007ed0b6f8200001927217",
                  "meta_description": null,
                  "meta_title": null,
                  "name": "Drawing and Watercolor",
                  "og_description": null,
                  "og_image": null,
                  "og_title": null,
                  "slug": "drawing-and-watercolor",
                  "twitter_description": null,
                  "twitter_image": null,
                  "twitter_title": null,
                  "url": "https://openapi.ghost.io/tag/drawing-and-watercolor/",
                  "visibility": "public"
                }
              ]
            },
            "schema": {
              "type": "object",
              "properties": {
                "tags": {
                  "type": "array",
                  "items": {
                    "$ref": "../components/schemas/tags.json"
                  }
                },
                "meta": {
                  "$ref": "../components/schemas/meta.json"
                }
              }
            }
          }
        },
        "description": "",
        "headers": {
          "ghost-age": {
            "description": "Custom header ghost-age",
            "schema": {
              "type": "string"
            }
          },
          "ghost-cache": {
            "description": "Custom header ghost-cache",
            "schema": {
              "type": "string"
            }
          },
          "ghost-fastly": {
            "description": "Custom header ghost-fastly",
            "schema": {
              "type": "string"
            }
          },
          "status": {
            "description": "Custom header status",
            "schema": {
              "type": "string"
            }
          },
          "x-cache": {
            "description": "Custom header x-cache",
            "schema": {
              "type": "string"
            }
          },
          "x-cache-hits": {
            "description": "Custom header x-cache-hits",
            "schema": {
              "type": "string"
            }
          },
          "x-served-by": {
            "description": "Custom header x-served-by",
            "schema": {
              "type": "string"
            }
          },
          "x-timer": {
            "description": "Custom header x-timer",
            "schema": {
              "type": "string"
            }
          }
        }
      },
      "403": {
        "content": {
          "application/json": {
            "example": {
              "errors": [
                {
                  "code": null,
                  "context": "Unable to determine the authenticated member or integration. Check the supplied Content API Key and ensure cookies are being passed through if member auth is failing.",
                  "details": null,
                  "ghostErrorCode": null,
                  "help": null,
                  "id": "79021a30-5428-11ee-8591-838e0f341f7b",
                  "message": "Authorization failed",
                  "property": null,
                  "type": "NoPermissionError"
                }
              ]
            },
            "schema": {
              "$ref": "../components/schemas/403.json"
            }
          }
        },
        "description": ""
      },
      "404": {
        "content": {
          "application/json": {
            "example": {
              "errors": [
                {
                  "code": null,
                  "context": null,
                  "details": null,
                  "ghostErrorCode": null,
                  "help": null,
                  "id": "79378210-5428-11ee-8591-838e0f341f7b",
                  "message": "Resource not found",
                  "property": null,
                  "type": "NotFoundError"
                }
              ]
            },
            "schema": {
              "$ref": "../components/schemas/404.json"
            }
          }
        },
        "description": ""
      },
      "422": {
        "content": {
          "application/json": {
            "example": {
              "errors": [
                {
                  "code": null,
                  "context": "Validation (matches) failed for limit undefined.limit",
                  "details": null,
                  "ghostErrorCode": null,
                  "help": null,
                  "id": "793a6840-5428-11ee-8591-838e0f341f7b",
                  "message": "Validation error, cannot list posts.",
                  "property": null,
                  "type": "ValidationError"
                }
              ]
            },
            "schema": {
              "$ref": "../components/schemas/422.json"
            }
          }
        },
        "description": ""
      }
    },
    "summary": "Get all tags",
    "tags": [
      "tags"
    ]
  },
  "parameters": []
}