{"openapi":"3.0.0","info":{"title":"HarToOpenApi","version":"1.0.0","description":"OpenAPI spec generated from HAR data for yoursite.com on 2023-10-02T15:18:31.776Z"},"paths":{"/ghost/api/admin/mentions/":{"get":{"description":"","operationId":"getGhostApiAdminMentions","parameters":[{"description":"limit","in":"query","name":"limit","schema":{"default":"2","example":"2","type":"string"}}],"responses":{"200":{"content":{"application/json":{"example":{"mentions":[{"id":"6515dfc67c9d0336f50d9b37","payload":null,"resource":null,"source":"https://source.com/","source_author":null,"source_excerpt":null,"source_favicon":null,"source_featured_image":null,"source_site_title":"source.com","source_title":"source.com","target":"https://target.com/","timestamp":"2023-09-28T20:19:18.000Z","verified":false},{"id":"6515dfc67c9d0336f50d9b38","payload":null,"resource":null,"source":"https://anothersource.com/","source_author":null,"source_excerpt":null,"source_favicon":null,"source_featured_image":null,"source_site_title":"anothersource.com","source_title":"anothersource.com","target":"https://anothertarget.com/","timestamp":"2023-09-28T20:19:18.000Z","verified":false}],"meta":{"pagination":{"limit":2,"next":2,"page":1,"pages":2,"prev":null,"total":3}}},"schema":{"additionalProperties":false,"properties":{"mentions":{"items":{"additionalProperties":false,"properties":{"id":{"type":"string"},"payload":{"nullable":true},"resource":{"nullable":true},"source":{"format":"uri","type":"string","x-qt-uri-protocols":["https"]},"source_author":{"nullable":true},"source_excerpt":{"nullable":true},"source_favicon":{"nullable":true},"source_featured_image":{"nullable":true},"source_site_title":{"type":"string"},"source_title":{"type":"string"},"target":{"format":"uri","type":"string","x-qt-uri-protocols":["https"]},"timestamp":{"format":"date-time","type":"string"},"verified":{"type":"boolean"}},"required":[],"title":"Mention","type":"object"},"type":"array"},"meta":{"additionalProperties":false,"properties":{"pagination":{"additionalProperties":false,"properties":{"limit":{"type":"integer"},"next":{"type":"integer"},"page":{"type":"integer"},"pages":{"type":"integer"},"prev":{"nullable":true},"total":{"type":"integer"}},"required":[],"title":"Pagination","type":"object"}},"required":[],"title":"Meta","type":"object"}},"required":[],"title":"GhostAPIAdminMentionsGetRequest","type":"object"}}},"description":""}},"summary":"Get Ghost Api Admin Mentions"},"parameters":[]}},"servers":[{"url":"https://yoursite.com"}]}