{
    "log": {
        "version": "1.2",
        "creator": {
            "name": "Ghost Synthetic Har Generator",
            "version": "1.0"
        },
        "entries": [
            {
                "request": {
                    "method": "GET",
                    "url": "https://yoursite.com/ghost/api/admin/posts/?collection=latest&limit=1&page=6",
                    "headers": [
                        {
                            "name": "host",
                            "value": "127.0.0.1:2369"
                        },
                        {
                            "name": "origin",
                            "value": "http://127.0.0.1:2369"
                        }
                    ],
                    "cookies": [],
                    "queryString": [
                        {
                            "name": "collection",
                            "value": "latest"
                        },
                        {
                            "name": "limit",
                            "value": "1"
                        },
                        {
                            "name": "page",
                            "value": "6"
                        }
                    ]
                },
                "response": {
                    "status": 200,
                    "headers": [
                        {
                            "name": "x-powered-by",
                            "value": "Express"
                        },
                        {
                            "name": "content-version",
                            "value": "v5.65"
                        },
                        {
                            "name": "vary",
                            "value": "Accept-Version, Origin, Accept-Encoding"
                        },
                        {
                            "name": "cache-control",
                            "value": "no-cache, private, no-store, must-revalidate, max-stale=0, post-check=0, pre-check=0"
                        },
                        {
                            "name": "access-control-allow-origin",
                            "value": "http://127.0.0.1:2369"
                        },
                        {
                            "name": "content-type",
                            "value": "application/json; charset=utf-8"
                        },
                        {
                            "name": "content-length",
                            "value": "8822"
                        },
                        {
                            "name": "etag",
                            "value": "W/\"2276-+1UGX8NodsyoN3GlHyzlnfoBeg8\""
                        }
                    ],
                    "content": {
                        "mimeType": "application/json; charset=utf-8",
                        "size": "8822",
                        "text": "{\"posts\":[{\"id\":\"6194d3ce51e2700162531a74\",\"uuid\":\"e83018dd-10cc-427a-99e1-b9f919536984\",\"title\":\"Building your audience with subscriber signups\",\"slug\":\"portal\",\"mobiledoc\":\"{\\\"version\\\":\\\"0.3.1\\\",\\\"atoms\\\":[],\\\"cards\\\":[[\\\"image\\\",{\\\"src\\\":\\\"https://static.ghost.org/v4.0.0/images/portalsettings.png\\\",\\\"width\\\":2924,\\\"height\\\":1810,\\\"cardWidth\\\":\\\"wide\\\"}],[\\\"hr\\\",{}]],\\\"markups\\\":[[\\\"em\\\"],[\\\"a\\\",[\\\"href\\\",\\\"#/portal\\\"]],[\\\"a\\\",[\\\"href\\\",\\\"http://127.0.0.1:2369/sell/\\\"]]],\\\"sections\\\":[[1,\\\"p\\\",[[0,[],0,\\\"What sets Ghost apart from other products is that you can publish content and grow your audience using the same platform. Rather than just endlessly posting and hoping someone is listening, you can track real signups against your work and have them subscribe to be notified of future posts. The feature that makes all this possible is called \\\"],[0,[0],1,\\\"Portal\\\"],[0,[],0,\\\".\\\"]]],[1,\\\"p\\\",[[0,[],0,\\\"Portal is an embedded interface for your audience to sign up to your site. It works on every Ghost site, with every theme, and for any type of publisher. \\\"]]],[1,\\\"p\\\",[[0,[],0,\\\"You can customize the design, content and settings of Portal to suit your site, whether you just want people to sign up to your newsletter — or you're running a full premium publication with user sign-ins and private content.\\\"]]],[10,0],[1,\\\"p\\\",[[0,[],0,\\\"Once people sign up to your site, they'll receive an email confirmation with a link to click. The link acts as an automatic sign-in, so subscribers will be automatically signed-in to your site when they click on it. There are a couple of interesting angles to this:\\\"]]],[1,\\\"p\\\",[[0,[],0,\\\"Because subscribers are automatically able to sign in and out of your site as registered members: You can (optionally) restrict access to posts and pages depending on whether people are signed-in or not. So if you want to publish some posts for free, but keep some really great stuff for members-only, this can be a great draw to encourage people to sign up!\\\"]]],[1,\\\"p\\\",[[0,[],0,\\\"Ghost members sign in using email authentication links, so there are no passwords for people to set or forget. You can turn any list of email subscribers into a database of registered members who can sign in to your site. Like magic.\\\"]]],[1,\\\"p\\\",[[0,[],0,\\\"Portal makes all of this possible, and it appears by default as a floating button in the bottom-right corner of your site. When people are logged out, clicking it will open a sign-up/sign-in window. When members are logged in, clicking the Portal button will open the account menu where they can edit their name, email, and subscription settings.\\\"]]],[1,\\\"p\\\",[[0,[],0,\\\"The floating Portal button is completely optional. If you prefer, you can add manual links to your content, navigation, or theme to trigger it instead.\\\"]]],[1,\\\"p\\\",[[0,[],0,\\\"Like this! \\\"],[0,[1],1,\\\"Sign up here\\\"]]],[10,1],[1,\\\"p\\\",[[0,[],0,\\\"As you start to grow your registered audience, you'll be able to get a sense of who you're publishing \\\"],[0,[0],1,\\\"for\\\"],[0,[],0,\\\" and where those people are coming \\\"],[0,[0],1,\\\"from\\\"],[0,[],0,\\\". Best of all: You'll have a straightforward, reliable way to connect with people who enjoy your work.\\\"]]],[1,\\\"p\\\",[[0,[],0,\\\"Social networks go in and out of fashion all the time. Email addresses are timeless.\\\"]]],[1,\\\"p\\\",[[0,[],0,\\\"Growing your audience is valuable no matter what type of site you run, but if your content \\\"],[0,[0],1,\\\"is\\\"],[0,[],0,\\\" your business, then you might also be interested in \\\"],[0,[2],1,\\\"setting up premium subscriptions\\\"],[0,[],0,\\\".\\\"]]]],\\\"ghostVersion\\\":\\\"4.0\\\"}\",\"comment_id\":\"6194d3ce51e2700162531a74\",\"feature_image\":\"https://static.ghost.org/v4.0.0/images/creating-a-custom-theme.png\",\"featured\":false,\"status\":\"published\",\"visibility\":\"public\",\"created_at\":\"2023-09-28T20:19:19.000Z\",\"updated_at\":\"2023-09-28T20:19:19.000Z\",\"published_at\":\"2023-09-28T20:19:21.000Z\",\"custom_excerpt\":\"How Ghost allows you to turn anonymous readers into an audience of active subscribers, so you know what's working and what isn't.\",\"codeinjection_head\":null,\"codeinjection_foot\":null,\"custom_template\":null,\"canonical_url\":null,\"tags\":[{\"id\":\"6194d3ce51e2700162531a70\",\"name\":\"Getting Started\",\"slug\":\"getting-started\",\"description\":null,\"feature_image\":null,\"visibility\":\"public\",\"og_image\":null,\"og_title\":null,\"og_description\":null,\"twitter_image\":null,\"twitter_title\":null,\"twitter_description\":null,\"meta_title\":null,\"meta_description\":null,\"codeinjection_head\":null,\"codeinjection_foot\":null,\"canonical_url\":null,\"accent_color\":null,\"created_at\":\"2023-09-28T20:19:18.000Z\",\"updated_at\":\"2023-09-28T20:19:18.000Z\",\"url\":\"http://127.0.0.1:2369/tag/getting-started/\"}],\"authors\":[{\"id\":\"5951f5fca366002ebd5dbef7\",\"name\":\"Ghost\",\"slug\":\"ghost\",\"email\":\"ghost-author@example.com\",\"profile_image\":\"https://static.ghost.org/v4.0.0/images/ghost-user.png\",\"cover_image\":null,\"bio\":\"You can delete this user to remove all the welcome posts\",\"website\":\"https://ghost.org\",\"location\":\"The Internet\",\"facebook\":\"ghost\",\"twitter\":\"ghost\",\"accessibility\":null,\"status\":\"active\",\"meta_title\":null,\"meta_description\":null,\"tour\":null,\"last_seen\":null,\"comment_notifications\":true,\"free_member_signup_notification\":true,\"paid_subscription_started_notification\":true,\"paid_subscription_canceled_notification\":false,\"mention_notifications\":true,\"recommendation_notifications\":true,\"milestone_notifications\":true,\"donation_notifications\":true,\"created_at\":\"2023-09-28T20:19:18.000Z\",\"updated_at\":\"2023-09-28T20:19:18.000Z\",\"roles\":[{\"id\":\"6515dfc67c9d0336f50d9c05\",\"name\":\"Contributor\",\"description\":\"Contributors\",\"created_at\":\"2023-09-28T20:19:18.000Z\",\"updated_at\":\"2023-09-28T20:19:18.000Z\"}],\"url\":\"http://127.0.0.1:2369/author/ghost/\"}],\"tiers\":[{\"id\":\"6515dfc67c9d0336f50d9c11\",\"name\":\"Free\",\"slug\":\"free\",\"active\":true,\"welcome_page_url\":null,\"visibility\":\"public\",\"trial_days\":0,\"description\":null,\"type\":\"free\",\"currency\":null,\"monthly_price\":null,\"yearly_price\":null,\"created_at\":\"2023-09-28T20:19:18.000Z\",\"updated_at\":\"2023-09-28T20:19:18.000Z\",\"monthly_price_id\":null,\"yearly_price_id\":null},{\"id\":\"6515dfc67c9d0336f50d9c10\",\"name\":\"Default Product\",\"slug\":\"default-product\",\"active\":true,\"welcome_page_url\":null,\"visibility\":\"public\",\"trial_days\":0,\"description\":null,\"type\":\"paid\",\"currency\":\"usd\",\"monthly_price\":500,\"yearly_price\":5000,\"created_at\":\"2023-09-28T20:19:18.000Z\",\"updated_at\":\"2023-09-28T20:19:18.000Z\",\"monthly_price_id\":null,\"yearly_price_id\":null}],\"post_revisions\":[],\"count\":{\"clicks\":0,\"positive_feedback\":0,\"negative_feedback\":0},\"primary_author\":{\"id\":\"5951f5fca366002ebd5dbef7\",\"name\":\"Ghost\",\"slug\":\"ghost\",\"email\":\"ghost-author@example.com\",\"profile_image\":\"https://static.ghost.org/v4.0.0/images/ghost-user.png\",\"cover_image\":null,\"bio\":\"You can delete this user to remove all the welcome posts\",\"website\":\"https://ghost.org\",\"location\":\"The Internet\",\"facebook\":\"ghost\",\"twitter\":\"ghost\",\"accessibility\":null,\"status\":\"active\",\"meta_title\":null,\"meta_description\":null,\"tour\":null,\"last_seen\":null,\"comment_notifications\":true,\"free_member_signup_notification\":true,\"paid_subscription_started_notification\":true,\"paid_subscription_canceled_notification\":false,\"mention_notifications\":true,\"recommendation_notifications\":true,\"milestone_notifications\":true,\"donation_notifications\":true,\"created_at\":\"2023-09-28T20:19:18.000Z\",\"updated_at\":\"2023-09-28T20:19:18.000Z\",\"roles\":[{\"id\":\"6515dfc67c9d0336f50d9c05\",\"name\":\"Contributor\",\"description\":\"Contributors\",\"created_at\":\"2023-09-28T20:19:18.000Z\",\"updated_at\":\"2023-09-28T20:19:18.000Z\"}],\"url\":\"http://127.0.0.1:2369/author/ghost/\"},\"primary_tag\":{\"id\":\"6194d3ce51e2700162531a70\",\"name\":\"Getting Started\",\"slug\":\"getting-started\",\"description\":null,\"feature_image\":null,\"visibility\":\"public\",\"og_image\":null,\"og_title\":null,\"og_description\":null,\"twitter_image\":null,\"twitter_title\":null,\"twitter_description\":null,\"meta_title\":null,\"meta_description\":null,\"codeinjection_head\":null,\"codeinjection_foot\":null,\"canonical_url\":null,\"accent_color\":null,\"created_at\":\"2023-09-28T20:19:18.000Z\",\"updated_at\":\"2023-09-28T20:19:18.000Z\",\"url\":\"http://127.0.0.1:2369/tag/getting-started/\"},\"email_segment\":\"all\",\"url\":\"http://127.0.0.1:2369/portal/\",\"excerpt\":\"How Ghost allows you to turn anonymous readers into an audience of active subscribers, so you know what's working and what isn't.\",\"reading_time\":2,\"og_image\":null,\"og_title\":null,\"og_description\":null,\"twitter_image\":null,\"twitter_title\":null,\"twitter_description\":null,\"meta_title\":null,\"meta_description\":null,\"email_subject\":null,\"frontmatter\":null,\"feature_image_alt\":null,\"feature_image_caption\":null,\"email_only\":false,\"email\":null,\"newsletter\":null}],\"meta\":{\"pagination\":{\"page\":6,\"limit\":1,\"pages\":13,\"total\":13,\"next\":7,\"prev\":5}}}"
                    }
                }
            }
        ]
    }
}