{
    "log": {
        "version": "1.2",
        "creator": {
            "name": "Ghost Synthetic Har Generator",
            "version": "1.0"
        },
        "entries": [
            {
                "request": {
                    "method": "GET",
                    "url": "https://yoursite.com/ghost/api/admin/posts/?formats=mobiledoc,lexical,html,plaintext&limit=2",
                    "headers": [
                        {
                            "name": "host",
                            "value": "127.0.0.1:2369"
                        },
                        {
                            "name": "origin",
                            "value": "http://127.0.0.1:2369"
                        }
                    ],
                    "cookies": [],
                    "queryString": [
                        {
                            "name": "formats",
                            "value": "mobiledoc,lexical,html,plaintext"
                        },
                        {
                            "name": "limit",
                            "value": "2"
                        }
                    ]
                },
                "response": {
                    "status": 200,
                    "headers": [
                        {
                            "name": "x-powered-by",
                            "value": "Express"
                        },
                        {
                            "name": "content-version",
                            "value": "v5.65"
                        },
                        {
                            "name": "vary",
                            "value": "Accept-Version, Origin, Accept-Encoding"
                        },
                        {
                            "name": "cache-control",
                            "value": "no-cache, private, no-store, must-revalidate, max-stale=0, post-check=0, pre-check=0"
                        },
                        {
                            "name": "access-control-allow-origin",
                            "value": "http://127.0.0.1:2369"
                        },
                        {
                            "name": "content-type",
                            "value": "application/json; charset=utf-8"
                        },
                        {
                            "name": "content-length",
                            "value": "13574"
                        },
                        {
                            "name": "etag",
                            "value": "W/\"3506-LNiMDht/dU8hhsoaSPdl/rw6+j8\""
                        }
                    ],
                    "content": {
                        "mimeType": "application/json; charset=utf-8",
                        "size": "13574",
                        "text": "{\"posts\":[{\"id\":\"618ba1ffbe2896088840a6ed\",\"uuid\":\"f3e7026e-48a4-435a-8a64-976056875102\",\"title\":\"This is a scheduled post!!\",\"slug\":\"scheduled-post\",\"mobiledoc\":\"{\\\"version\\\":\\\"0.3.1\\\",\\\"markups\\\":[],\\\"atoms\\\":[],\\\"cards\\\":[[\\\"markdown\\\",{\\\"markdown\\\":\\\"<h1>Welcome to my invisible post!</h1>\\\"}]],\\\"sections\\\":[[10,0]]}\",\"lexical\":null,\"html\":\"<!--kg-card-begin: markdown--><h1>Welcome to my invisible post!</h1><!--kg-card-end: markdown-->\",\"comment_id\":\"618ba1ffbe2896088840a6ed\",\"plaintext\":\"Welcome to my invisible post!\",\"feature_image\":null,\"featured\":false,\"status\":\"scheduled\",\"visibility\":\"public\",\"created_at\":\"2023-09-28T20:19:18.000Z\",\"updated_at\":\"2023-09-28T20:19:18.000Z\",\"published_at\":\"2023-09-30T20:19:18.000Z\",\"custom_excerpt\":null,\"codeinjection_head\":null,\"codeinjection_foot\":null,\"custom_template\":null,\"canonical_url\":null,\"tags\":[],\"authors\":[{\"id\":\"1\",\"name\":\"Joe Bloggs\",\"slug\":\"joe-bloggs\",\"email\":\"jbloggs@example.com\",\"profile_image\":\"https://example.com/super_photo.jpg\",\"cover_image\":null,\"bio\":\"bio\",\"website\":null,\"location\":\"location\",\"facebook\":null,\"twitter\":null,\"accessibility\":null,\"status\":\"active\",\"meta_title\":null,\"meta_description\":null,\"tour\":null,\"last_seen\":\"2023-09-28T20:19:52.000Z\",\"comment_notifications\":true,\"free_member_signup_notification\":true,\"paid_subscription_started_notification\":true,\"paid_subscription_canceled_notification\":false,\"mention_notifications\":true,\"recommendation_notifications\":true,\"milestone_notifications\":true,\"donation_notifications\":true,\"created_at\":\"2023-09-28T20:19:52.000Z\",\"updated_at\":\"2023-09-28T20:19:52.000Z\",\"roles\":[{\"id\":\"6515dfc67c9d0336f50d9c06\",\"name\":\"Owner\",\"description\":\"Blog Owner\",\"created_at\":\"2023-09-28T20:19:18.000Z\",\"updated_at\":\"2023-09-28T20:19:18.000Z\"}],\"url\":\"http://127.0.0.1:2369/author/joe-bloggs/\"}],\"tiers\":[{\"id\":\"6515dfc67c9d0336f50d9c11\",\"name\":\"Free\",\"slug\":\"free\",\"active\":true,\"welcome_page_url\":null,\"visibility\":\"public\",\"trial_days\":0,\"description\":null,\"type\":\"free\",\"currency\":null,\"monthly_price\":null,\"yearly_price\":null,\"created_at\":\"2023-09-28T20:19:18.000Z\",\"updated_at\":\"2023-09-28T20:19:18.000Z\",\"monthly_price_id\":null,\"yearly_price_id\":null},{\"id\":\"6515dfc67c9d0336f50d9c10\",\"name\":\"Default Product\",\"slug\":\"default-product\",\"active\":true,\"welcome_page_url\":null,\"visibility\":\"public\",\"trial_days\":0,\"description\":null,\"type\":\"paid\",\"currency\":\"usd\",\"monthly_price\":500,\"yearly_price\":5000,\"created_at\":\"2023-09-28T20:19:18.000Z\",\"updated_at\":\"2023-09-28T20:19:18.000Z\",\"monthly_price_id\":null,\"yearly_price_id\":null}],\"post_revisions\":[],\"count\":{\"clicks\":0,\"positive_feedback\":0,\"negative_feedback\":0},\"primary_author\":{\"id\":\"1\",\"name\":\"Joe Bloggs\",\"slug\":\"joe-bloggs\",\"email\":\"jbloggs@example.com\",\"profile_image\":\"https://example.com/super_photo.jpg\",\"cover_image\":null,\"bio\":\"bio\",\"website\":null,\"location\":\"location\",\"facebook\":null,\"twitter\":null,\"accessibility\":null,\"status\":\"active\",\"meta_title\":null,\"meta_description\":null,\"tour\":null,\"last_seen\":\"2023-09-28T20:19:52.000Z\",\"comment_notifications\":true,\"free_member_signup_notification\":true,\"paid_subscription_started_notification\":true,\"paid_subscription_canceled_notification\":false,\"mention_notifications\":true,\"recommendation_notifications\":true,\"milestone_notifications\":true,\"donation_notifications\":true,\"created_at\":\"2023-09-28T20:19:52.000Z\",\"updated_at\":\"2023-09-28T20:19:52.000Z\",\"roles\":[{\"id\":\"6515dfc67c9d0336f50d9c06\",\"name\":\"Owner\",\"description\":\"Blog Owner\",\"created_at\":\"2023-09-28T20:19:18.000Z\",\"updated_at\":\"2023-09-28T20:19:18.000Z\"}],\"url\":\"http://127.0.0.1:2369/author/joe-bloggs/\"},\"primary_tag\":null,\"email_segment\":\"all\",\"url\":\"http://127.0.0.1:2369/p/f3e7026e-48a4-435a-8a64-976056875102/\",\"excerpt\":\"Welcome to my invisible post!\",\"reading_time\":0,\"og_image\":null,\"og_title\":null,\"og_description\":null,\"twitter_image\":null,\"twitter_title\":null,\"twitter_description\":null,\"meta_title\":null,\"meta_description\":null,\"email_subject\":null,\"frontmatter\":null,\"feature_image_alt\":null,\"feature_image_caption\":null,\"email_only\":false,\"email\":null,\"newsletter\":null},{\"id\":\"618ba1ffbe2896088840a6e5\",\"uuid\":\"d52c42ae-2755-455c-80ec-70b2ec55c903\",\"title\":\"Not finished yet\",\"slug\":\"unfinished\",\"mobiledoc\":\"{\\\"version\\\":\\\"0.3.1\\\",\\\"markups\\\":[],\\\"atoms\\\":[],\\\"cards\\\":[[\\\"markdown\\\",{\\\"markdown\\\":\\\"<h1>HTML Ipsum Presents</h1><p><strong>Pellentesque habitant morbi tristique</strong> senectus et netus et malesuada fames ac turpis egestas. Vestibulum tortor quam, feugiat vitae, ultricies eget, tempor sit amet, ante. Donec eu libero sit amet quam egestas semper. <em>Aenean ultricies mi vitae est.</em> Mauris placerat eleifend leo. Quisque sit amet est et sapien ullamcorper pharetra. Vestibulum erat wisi, condimentum sed, <code>commodo vitae</code>, ornare sit amet, wisi. Aenean fermentum, elit eget tincidunt condimentum, eros ipsum rutrum orci, sagittis tempus lacus enim ac dui. <a href=\\\\\\\"#\\\\\\\">Donec non enim</a> in turpis pulvinar facilisis. Ut felis.</p><h2>Header Level 2</h2><ol><li>Lorem ipsum dolor sit amet, consectetuer adipiscing elit.</li><li>Aliquam tincidunt mauris eu risus.</li></ol><blockquote><p>Lorem ipsum dolor sit amet, consectetur adipiscing elit. Vivamus magna. Cras in mi at felis aliquet congue. Ut a est eget ligula molestie gravida. Curabitur massa. Donec eleifend, libero at sagittis mollis, tellus est malesuada tellus, at luctus turpis elit sit amet quam. Vivamus pretium ornare est.</p></blockquote><h3>Header Level 3</h3><ul><li>Lorem ipsum dolor sit amet, consectetuer adipiscing elit.</li><li>Aliquam tincidunt mauris eu risus.</li></ul><pre><code>#header h1 a{display: block;width: 300px;height: 80px;}</code></pre>\\\"}]],\\\"sections\\\":[[10,0]]}\",\"lexical\":null,\"html\":\"<!--kg-card-begin: markdown--><h1>HTML Ipsum Presents</h1><p><strong>Pellentesque habitant morbi tristique</strong> senectus et netus et malesuada fames ac turpis egestas. Vestibulum tortor quam, feugiat vitae, ultricies eget, tempor sit amet, ante. Donec eu libero sit amet quam egestas semper. <em>Aenean ultricies mi vitae est.</em> Mauris placerat eleifend leo. Quisque sit amet est et sapien ullamcorper pharetra. Vestibulum erat wisi, condimentum sed, <code>commodo vitae</code>, ornare sit amet, wisi. Aenean fermentum, elit eget tincidunt condimentum, eros ipsum rutrum orci, sagittis tempus lacus enim ac dui. <a href=\\\"#\\\">Donec non enim</a> in turpis pulvinar facilisis. Ut felis.</p><h2>Header Level 2</h2><ol><li>Lorem ipsum dolor sit amet, consectetuer adipiscing elit.</li><li>Aliquam tincidunt mauris eu risus.</li></ol><blockquote><p>Lorem ipsum dolor sit amet, consectetur adipiscing elit. Vivamus magna. Cras in mi at felis aliquet congue. Ut a est eget ligula molestie gravida. Curabitur massa. Donec eleifend, libero at sagittis mollis, tellus est malesuada tellus, at luctus turpis elit sit amet quam. Vivamus pretium ornare est.</p></blockquote><h3>Header Level 3</h3><ul><li>Lorem ipsum dolor sit amet, consectetuer adipiscing elit.</li><li>Aliquam tincidunt mauris eu risus.</li></ul><pre><code>#header h1 a{display: block;width: 300px;height: 80px;}</code></pre><!--kg-card-end: markdown-->\",\"comment_id\":\"618ba1ffbe2896088840a6e5\",\"plaintext\":\"HTML Ipsum Presents\\n\\nPellentesque habitant morbi tristique senectus et netus et malesuada fames ac turpis egestas. Vestibulum tortor quam, feugiat vitae, ultricies eget, tempor sit amet, ante. Donec eu libero sit amet quam egestas semper. Aenean ultricies mi vitae est. Mauris placerat eleifend leo. Quisque sit amet est et sapien ullamcorper pharetra. Vestibulum erat wisi, condimentum sed, commodo vitae, ornare sit amet, wisi. Aenean fermentum, elit eget tincidunt condimentum, eros ipsum rutrum orci, sagittis tempus lacus enim ac dui. Donec non enim in turpis pulvinar facilisis. Ut felis.\\n\\n\\nHeader Level 2\\n\\n 1. Lorem ipsum dolor sit amet, consectetuer adipiscing elit.\\n 2. Aliquam tincidunt mauris eu risus.\\n\\nLorem ipsum dolor sit amet, consectetur adipiscing elit. Vivamus magna. Cras in mi at felis aliquet congue. Ut a est eget ligula molestie gravida. Curabitur massa. Donec eleifend, libero at sagittis mollis, tellus est malesuada tellus, at luctus turpis elit sit amet quam. Vivamus pretium ornare est.\\n\\n\\nHeader Level 3\\n\\n * Lorem ipsum dolor sit amet, consectetuer adipiscing elit.\\n * Aliquam tincidunt mauris eu risus.\\n\\n#header h1 a{display: block;width: 300px;height: 80px;}\",\"feature_image\":null,\"featured\":false,\"status\":\"draft\",\"visibility\":\"public\",\"created_at\":\"2023-09-28T20:19:18.000Z\",\"updated_at\":\"2023-09-28T20:19:18.000Z\",\"published_at\":\"2023-09-28T20:19:18.000Z\",\"custom_excerpt\":null,\"codeinjection_head\":null,\"codeinjection_foot\":null,\"custom_template\":null,\"canonical_url\":null,\"tags\":[{\"id\":\"6193c6d5e792de832cd08148\",\"name\":\"pollo\",\"slug\":\"pollo\",\"description\":\"description\",\"feature_image\":null,\"visibility\":\"public\",\"og_image\":null,\"og_title\":null,\"og_description\":null,\"twitter_image\":null,\"twitter_title\":null,\"twitter_description\":null,\"meta_title\":null,\"meta_description\":null,\"codeinjection_head\":null,\"codeinjection_foot\":null,\"canonical_url\":null,\"accent_color\":null,\"created_at\":\"2023-09-28T20:19:18.000Z\",\"updated_at\":\"2023-09-28T20:19:18.000Z\",\"url\":\"http://127.0.0.1:2369/404/\"}],\"authors\":[{\"id\":\"1\",\"name\":\"Joe Bloggs\",\"slug\":\"joe-bloggs\",\"email\":\"jbloggs@example.com\",\"profile_image\":\"https://example.com/super_photo.jpg\",\"cover_image\":null,\"bio\":\"bio\",\"website\":null,\"location\":\"location\",\"facebook\":null,\"twitter\":null,\"accessibility\":null,\"status\":\"active\",\"meta_title\":null,\"meta_description\":null,\"tour\":null,\"last_seen\":\"2023-09-28T20:19:52.000Z\",\"comment_notifications\":true,\"free_member_signup_notification\":true,\"paid_subscription_started_notification\":true,\"paid_subscription_canceled_notification\":false,\"mention_notifications\":true,\"recommendation_notifications\":true,\"milestone_notifications\":true,\"donation_notifications\":true,\"created_at\":\"2023-09-28T20:19:52.000Z\",\"updated_at\":\"2023-09-28T20:19:52.000Z\",\"roles\":[{\"id\":\"6515dfc67c9d0336f50d9c06\",\"name\":\"Owner\",\"description\":\"Blog Owner\",\"created_at\":\"2023-09-28T20:19:18.000Z\",\"updated_at\":\"2023-09-28T20:19:18.000Z\"}],\"url\":\"http://127.0.0.1:2369/author/joe-bloggs/\"}],\"tiers\":[{\"id\":\"6515dfc67c9d0336f50d9c11\",\"name\":\"Free\",\"slug\":\"free\",\"active\":true,\"welcome_page_url\":null,\"visibility\":\"public\",\"trial_days\":0,\"description\":null,\"type\":\"free\",\"currency\":null,\"monthly_price\":null,\"yearly_price\":null,\"created_at\":\"2023-09-28T20:19:18.000Z\",\"updated_at\":\"2023-09-28T20:19:18.000Z\",\"monthly_price_id\":null,\"yearly_price_id\":null},{\"id\":\"6515dfc67c9d0336f50d9c10\",\"name\":\"Default Product\",\"slug\":\"default-product\",\"active\":true,\"welcome_page_url\":null,\"visibility\":\"public\",\"trial_days\":0,\"description\":null,\"type\":\"paid\",\"currency\":\"usd\",\"monthly_price\":500,\"yearly_price\":5000,\"created_at\":\"2023-09-28T20:19:18.000Z\",\"updated_at\":\"2023-09-28T20:19:18.000Z\",\"monthly_price_id\":null,\"yearly_price_id\":null}],\"post_revisions\":[],\"count\":{\"clicks\":0,\"positive_feedback\":0,\"negative_feedback\":0},\"primary_author\":{\"id\":\"1\",\"name\":\"Joe Bloggs\",\"slug\":\"joe-bloggs\",\"email\":\"jbloggs@example.com\",\"profile_image\":\"https://example.com/super_photo.jpg\",\"cover_image\":null,\"bio\":\"bio\",\"website\":null,\"location\":\"location\",\"facebook\":null,\"twitter\":null,\"accessibility\":null,\"status\":\"active\",\"meta_title\":null,\"meta_description\":null,\"tour\":null,\"last_seen\":\"2023-09-28T20:19:52.000Z\",\"comment_notifications\":true,\"free_member_signup_notification\":true,\"paid_subscription_started_notification\":true,\"paid_subscription_canceled_notification\":false,\"mention_notifications\":true,\"recommendation_notifications\":true,\"milestone_notifications\":true,\"donation_notifications\":true,\"created_at\":\"2023-09-28T20:19:52.000Z\",\"updated_at\":\"2023-09-28T20:19:52.000Z\",\"roles\":[{\"id\":\"6515dfc67c9d0336f50d9c06\",\"name\":\"Owner\",\"description\":\"Blog Owner\",\"created_at\":\"2023-09-28T20:19:18.000Z\",\"updated_at\":\"2023-09-28T20:19:18.000Z\"}],\"url\":\"http://127.0.0.1:2369/author/joe-bloggs/\"},\"primary_tag\":{\"id\":\"6193c6d5e792de832cd08148\",\"name\":\"pollo\",\"slug\":\"pollo\",\"description\":\"description\",\"feature_image\":null,\"visibility\":\"public\",\"og_image\":null,\"og_title\":null,\"og_description\":null,\"twitter_image\":null,\"twitter_title\":null,\"twitter_description\":null,\"meta_title\":null,\"meta_description\":null,\"codeinjection_head\":null,\"codeinjection_foot\":null,\"canonical_url\":null,\"accent_color\":null,\"created_at\":\"2023-09-28T20:19:18.000Z\",\"updated_at\":\"2023-09-28T20:19:18.000Z\",\"url\":\"http://127.0.0.1:2369/404/\"},\"email_segment\":\"all\",\"url\":\"http://127.0.0.1:2369/p/d52c42ae-2755-455c-80ec-70b2ec55c903/\",\"excerpt\":\"HTML Ipsum Presents\\n\\nPellentesque habitant morbi tristique senectus et netus et malesuada fames ac turpis egestas. Vestibulum tortor quam, feugiat vitae, ultricies eget, tempor sit amet, ante. Donec eu libero sit amet quam egestas semper. Aenean ultricies mi vitae est. Mauris placerat eleifend leo. Quisque sit amet est et sapien ullamcorper pharetra. Vestibulum erat wisi, condimentum sed, commodo vitae, ornare sit amet, wisi. Aenean fermentum, elit eget tincidunt condimentum, eros ipsum rutrum o\",\"reading_time\":1,\"og_image\":null,\"og_title\":null,\"og_description\":null,\"twitter_image\":null,\"twitter_title\":null,\"twitter_description\":null,\"meta_title\":null,\"meta_description\":\"meta description for draft post\",\"email_subject\":null,\"frontmatter\":null,\"feature_image_alt\":null,\"feature_image_caption\":null,\"email_only\":false,\"email\":null,\"newsletter\":null}],\"meta\":{\"pagination\":{\"page\":1,\"limit\":2,\"pages\":7,\"total\":13,\"next\":2,\"prev\":null}}}"
                    }
                }
            }
        ]
    }
}