{
    "log": {
        "version": "1.2",
        "creator": {
            "name": "Ghost Synthetic Har Generator",
            "version": "1.0"
        },
        "entries": [
            {
                "request": {
                    "method": "GET",
                    "url": "https://demo.ghost.io/ghost/api/admin/posts/?limit=1&filter=status:published",
                    "headers": [
                        {
                            "name": "host",
                            "value": "127.0.0.1:2369"
                        },
                        {
                            "name": "origin",
                            "value": "http://127.0.0.1:2369"
                        }
                    ],
                    "cookies": [],
                    "queryString": [
                        {
                            "name": "limit",
                            "value": "1"
                        },
                        {
                            "name": "filter",
                            "value": "status:published"
                        }
                    ]
                },
                "response": {
                    "status": 200,
                    "headers": [
                        {
                            "name": "x-powered-by",
                            "value": "Express"
                        },
                        {
                            "name": "content-version",
                            "value": "v5.65"
                        },
                        {
                            "name": "vary",
                            "value": "Accept-Version, Origin, Accept-Encoding"
                        },
                        {
                            "name": "cache-control",
                            "value": "no-cache, private, no-store, must-revalidate, max-stale=0, post-check=0, pre-check=0"
                        },
                        {
                            "name": "access-control-allow-origin",
                            "value": "http://127.0.0.1:2369"
                        },
                        {
                            "name": "content-type",
                            "value": "application/json; charset=utf-8"
                        },
                        {
                            "name": "content-length",
                            "value": "6717"
                        },
                        {
                            "name": "etag",
                            "value": "W/\"1a3d-uZHZezHLwqI3QSNFWNuzF9tCuHI\""
                        }
                    ],
                    "content": {
                        "mimeType": "application/json; charset=utf-8",
                        "size": "6717",
                        "text": "{\"posts\":[{\"id\":\"651c81051334699742ce9a0e\",\"uuid\":\"55308abb-30de-47eb-8285-c9cbb5599d77\",\"title\":\"Page reset test\",\"slug\":\"page-reset-test-3\",\"mobiledoc\":null,\"comment_id\":\"651c81051334699742ce9a0e\",\"feature_image\":null,\"featured\":false,\"status\":\"published\",\"visibility\":\"public\",\"created_at\":\"2023-10-03T21:00:53.000Z\",\"updated_at\":\"2023-10-03T21:00:53.000Z\",\"published_at\":\"2023-10-03T21:00:53.000Z\",\"custom_excerpt\":null,\"codeinjection_head\":null,\"codeinjection_foot\":null,\"custom_template\":null,\"canonical_url\":null,\"tags\":[],\"authors\":[{\"id\":\"1\",\"name\":\"Joe Bloggs\",\"slug\":\"joe-bloggs\",\"email\":\"jbloggs@example.com\",\"profile_image\":\"https://example.com/super_photo.jpg\",\"cover_image\":null,\"bio\":\"bio\",\"website\":null,\"location\":\"location\",\"facebook\":null,\"twitter\":null,\"accessibility\":null,\"status\":\"active\",\"meta_title\":null,\"meta_description\":null,\"tour\":null,\"last_seen\":\"2023-10-03T21:00:53.000Z\",\"comment_notifications\":true,\"free_member_signup_notification\":true,\"paid_subscription_started_notification\":true,\"paid_subscription_canceled_notification\":false,\"mention_notifications\":true,\"recommendation_notifications\":true,\"milestone_notifications\":true,\"donation_notifications\":true,\"created_at\":\"2023-10-03T21:00:53.000Z\",\"updated_at\":\"2023-10-03T21:00:53.000Z\",\"roles\":[{\"id\":\"651c80e31334699742ce7350\",\"name\":\"Owner\",\"description\":\"Blog Owner\",\"created_at\":\"2023-10-03T21:00:19.000Z\",\"updated_at\":\"2023-10-03T21:00:19.000Z\"}],\"url\":\"http://127.0.0.1:2369/author/joe-bloggs/\"}],\"tiers\":[{\"id\":\"651c80e31334699742ce735b\",\"name\":\"Free\",\"slug\":\"free\",\"active\":true,\"welcome_page_url\":null,\"visibility\":\"public\",\"trial_days\":0,\"description\":null,\"type\":\"free\",\"currency\":null,\"monthly_price\":null,\"yearly_price\":null,\"created_at\":\"2023-10-03T21:00:19.000Z\",\"updated_at\":\"2023-10-03T21:00:19.000Z\",\"monthly_price_id\":null,\"yearly_price_id\":null},{\"id\":\"651c80e31334699742ce735a\",\"name\":\"Default Product\",\"slug\":\"default-product\",\"active\":true,\"welcome_page_url\":null,\"visibility\":\"public\",\"trial_days\":0,\"description\":null,\"type\":\"paid\",\"currency\":\"usd\",\"monthly_price\":500,\"yearly_price\":5000,\"created_at\":\"2023-10-03T21:00:19.000Z\",\"updated_at\":\"2023-10-03T21:00:19.000Z\",\"monthly_price_id\":null,\"yearly_price_id\":null}],\"post_revisions\":[{\"id\":\"651c81051334699742ce9a10\",\"post_id\":\"651c81051334699742ce9a0e\",\"lexical\":\"{\\\"root\\\":{\\\"children\\\":[{\\\"children\\\":[{\\\"detail\\\":0,\\\"format\\\":0,\\\"mode\\\":\\\"normal\\\",\\\"style\\\":\\\"\\\",\\\"text\\\":\\\"Testing page.html reset when updating post\\\",\\\"type\\\":\\\"text\\\",\\\"version\\\":1}],\\\"direction\\\":\\\"ltr\\\",\\\"format\\\":\\\"\\\",\\\"indent\\\":0,\\\"type\\\":\\\"paragraph\\\",\\\"version\\\":1}],\\\"direction\\\":\\\"ltr\\\",\\\"format\\\":\\\"\\\",\\\"indent\\\":0,\\\"type\\\":\\\"root\\\",\\\"version\\\":1}}\",\"created_at_ts\":1696366853810,\"created_at\":\"2023-10-03T21:00:53.000Z\",\"title\":\"Page reset test\",\"post_status\":\"draft\",\"reason\":\"initial_revision\",\"feature_image\":null,\"feature_image_alt\":null,\"feature_image_caption\":null,\"author\":{\"id\":\"1\",\"name\":\"Joe Bloggs\",\"slug\":\"joe-bloggs\",\"email\":\"jbloggs@example.com\",\"profile_image\":\"https://example.com/super_photo.jpg\",\"cover_image\":null,\"bio\":\"bio\",\"website\":null,\"location\":\"location\",\"facebook\":null,\"twitter\":null,\"accessibility\":null,\"status\":\"active\",\"locale\":null,\"visibility\":\"public\",\"meta_title\":null,\"meta_description\":null,\"tour\":null,\"last_seen\":\"2023-10-03T21:00:53.000Z\",\"comment_notifications\":true,\"free_member_signup_notification\":true,\"paid_subscription_started_notification\":true,\"paid_subscription_canceled_notification\":false,\"mention_notifications\":true,\"recommendation_notifications\":true,\"milestone_notifications\":true,\"donation_notifications\":true,\"created_at\":\"2023-10-03T21:00:53.000Z\",\"updated_at\":\"2023-10-03T21:00:53.000Z\"}},{\"id\":\"651c81051334699742ce9a14\",\"post_id\":\"651c81051334699742ce9a0e\",\"lexical\":\"{\\\"root\\\":{\\\"children\\\":[{\\\"children\\\":[{\\\"detail\\\":0,\\\"format\\\":0,\\\"mode\\\":\\\"normal\\\",\\\"style\\\":\\\"\\\",\\\"text\\\":\\\"Testing page.html reset when updating post\\\",\\\"type\\\":\\\"text\\\",\\\"version\\\":1}],\\\"direction\\\":null,\\\"format\\\":\\\"\\\",\\\"indent\\\":0,\\\"type\\\":\\\"paragraph\\\",\\\"version\\\":1}],\\\"direction\\\":null,\\\"format\\\":\\\"\\\",\\\"indent\\\":0,\\\"type\\\":\\\"root\\\",\\\"version\\\":1}}\",\"created_at_ts\":1696366853832,\"created_at\":\"2023-10-03T21:00:53.000Z\",\"title\":\"Page reset test\",\"post_status\":\"published\",\"reason\":\"published\",\"feature_image\":null,\"feature_image_alt\":null,\"feature_image_caption\":null,\"author\":{\"id\":\"1\",\"name\":\"Joe Bloggs\",\"slug\":\"joe-bloggs\",\"email\":\"jbloggs@example.com\",\"profile_image\":\"https://example.com/super_photo.jpg\",\"cover_image\":null,\"bio\":\"bio\",\"website\":null,\"location\":\"location\",\"facebook\":null,\"twitter\":null,\"accessibility\":null,\"status\":\"active\",\"locale\":null,\"visibility\":\"public\",\"meta_title\":null,\"meta_description\":null,\"tour\":null,\"last_seen\":\"2023-10-03T21:00:53.000Z\",\"comment_notifications\":true,\"free_member_signup_notification\":true,\"paid_subscription_started_notification\":true,\"paid_subscription_canceled_notification\":false,\"mention_notifications\":true,\"recommendation_notifications\":true,\"milestone_notifications\":true,\"donation_notifications\":true,\"created_at\":\"2023-10-03T21:00:53.000Z\",\"updated_at\":\"2023-10-03T21:00:53.000Z\"}}],\"count\":{\"clicks\":0,\"positive_feedback\":0,\"negative_feedback\":0},\"primary_author\":{\"id\":\"1\",\"name\":\"Joe Bloggs\",\"slug\":\"joe-bloggs\",\"email\":\"jbloggs@example.com\",\"profile_image\":\"https://example.com/super_photo.jpg\",\"cover_image\":null,\"bio\":\"bio\",\"website\":null,\"location\":\"location\",\"facebook\":null,\"twitter\":null,\"accessibility\":null,\"status\":\"active\",\"meta_title\":null,\"meta_description\":null,\"tour\":null,\"last_seen\":\"2023-10-03T21:00:53.000Z\",\"comment_notifications\":true,\"free_member_signup_notification\":true,\"paid_subscription_started_notification\":true,\"paid_subscription_canceled_notification\":false,\"mention_notifications\":true,\"recommendation_notifications\":true,\"milestone_notifications\":true,\"donation_notifications\":true,\"created_at\":\"2023-10-03T21:00:53.000Z\",\"updated_at\":\"2023-10-03T21:00:53.000Z\",\"roles\":[{\"id\":\"651c80e31334699742ce7350\",\"name\":\"Owner\",\"description\":\"Blog Owner\",\"created_at\":\"2023-10-03T21:00:19.000Z\",\"updated_at\":\"2023-10-03T21:00:19.000Z\"}],\"url\":\"http://127.0.0.1:2369/author/joe-bloggs/\"},\"primary_tag\":null,\"email_segment\":\"all\",\"url\":\"http://127.0.0.1:2369/404/\",\"excerpt\":\"Testing page.html reset when updating post\",\"reading_time\":0,\"og_image\":null,\"og_title\":null,\"og_description\":null,\"twitter_image\":null,\"twitter_title\":null,\"twitter_description\":null,\"meta_title\":null,\"meta_description\":null,\"email_subject\":null,\"frontmatter\":null,\"feature_image_alt\":null,\"feature_image_caption\":null,\"email_only\":false,\"email\":null,\"newsletter\":null}],\"meta\":{\"pagination\":{\"page\":1,\"limit\":1,\"pages\":10,\"total\":10,\"next\":2,\"prev\":null}}}"
                    }
                }
            }
        ]
    }
}